{
  "iisSettings": {
    "windowsAuthentication": false,
    "anonymousAuthentication": true,
    "iisExpress": {
      "applicationUrl": "http://localhost:41486",
      "sslPort": 44319
    }
  },
  "$schema": "http://json.schemastore.org/launchsettings.json",
  "profiles": {
    "IIS Express": {
      "commandName": "IISExpress",
      "launchBrowser": true,
      "launchUrl": "api/values",
      "environmentVariables": {
        "Kestrel__Certificates__Default__Password": "1112",
        "Kestrel__Certificates__Default__Path": "./aspnetcore-cert.pfx",
        "ASPNETCORE_ENVIRONMENT": "Development"
      }
    },
    "aspnetwebapi": {
      "commandName": "Project",
      "launchBrowser": true,
      "launchUrl": "api/values",
      "environmentVariables": {
        "ASPNETCORE_ENVIRONMENT": "Development"
      },
      "applicationUrl": "https://localhost:5001;http://localhost:5000"
    }
  }
}